{
    "id": "a0dffea7-7b8b-4781-b487-e46ee9950614",
    "schema": "https://metadata.datadrivendiscovery.org/schemas/v0/pipeline.json",
    "created": "2019-06-20T22:20:43.126402Z",
    "inputs": [
        {
            "name": "inputs"
        }
    ],
    "outputs": [
        {
            "data": "steps.1.produce",
            "name": "Results"
        }
    ],
    "steps": [
        {
            "type": "PRIMITIVE",
            "primitive": {
                "id": "a22f9bd3-818e-44e9-84a3-9592c5a85408",
                "version": "1.5.5",
                "python_path": "d3m.primitives.data_transformation.vertex_classification_parser.VertexClassificationParser",
                "name": "Vertex Classification Parser"
            },
            "arguments": {
                "inputs": {
                    "type": "CONTAINER",
                    "data": "inputs.0"
                }
            },
            "outputs": [
                {
                    "id": "produce"
                }
            ]
        },
        {
            "type": "PRIMITIVE",
            "primitive": {
                "id": "dca25a46-7a5f-48d9-ac9b-d14d4d671b0b",
                "version": "1.5.5",
                "python_path": "d3m.primitives.classification.vertex_nomination.VertexClassification",
                "name": "Vertex Classification"
            },
            "arguments": {
                "inputs": {
                    "type": "CONTAINER",
                    "data": "steps.0.produce"
                }
            },
            "outputs": [
                {
                    "id": "produce"
                }
            ]
        }
    ]
}