{
    "created": "2020-01-16T06:37:45.036004Z",
    "digest": "b2e24c5f3b8e37946182f4943cbfdcdc8176943c5c4348719bacfc7640b9eb53",
    "id": "ta1-perspecta-lupimfa_uu5_heartstatlog_MIN_METADATA_s0_linear",
    "inputs": [
        {
            "name": "inputs"
        }
    ],
    "outputs": [
        {
            "data": "steps.7.produce",
            "name": "output predictions"
        }
    ],
    "schema": "https://metadata.datadrivendiscovery.org/schemas/v0/pipeline.json",
    "steps": [
        {
            "arguments": {
                "inputs": {
                    "data": "inputs.0",
                    "type": "CONTAINER"
                }
            },
            "outputs": [
                {
                    "id": "produce"
                }
            ],
            "primitive": {
                "digest": "721acdfdf36de9b51a2100a2f4056904d2641c49e5812515fe565adecdf076d1",
                "id": "4b42ce1e-9b98-4a25-b68e-fad13311eb65",
                "name": "Extract a DataFrame from a Dataset",
                "python_path": "d3m.primitives.data_transformation.dataset_to_dataframe.Common",
                "version": "0.3.0"
            },
            "type": "PRIMITIVE"
        },
        {
            "arguments": {
                "inputs": {
                    "data": "steps.0.produce",
                    "type": "CONTAINER"
                }
            },
            "hyperparams": {
                "detect_semantic_types": {
                    "data": [
                        "http://schema.org/Boolean",
                        "https://metadata.datadrivendiscovery.org/types/CategoricalData",
                        "http://schema.org/Integer",
                        "http://schema.org/Float",
                        "http://schema.org/Text",
                        "https://metadata.datadrivendiscovery.org/types/Attribute",
                        "https://metadata.datadrivendiscovery.org/types/TrueTarget",
                        "https://metadata.datadrivendiscovery.org/types/PrimaryKey"
                    ],
                    "type": "VALUE"
                }
            },
            "outputs": [
                {
                    "id": "produce"
                }
            ],
            "primitive": {
                "digest": "c5dd2bbc5f362690233c9b74f1ce78fa2d0b6a4b226001894cc923424403463e",
                "id": "e193afa1-b45e-4d29-918f-5bb1fa3b88a7",
                "name": "Determine missing semantic types for columns automatically",
                "python_path": "d3m.primitives.schema_discovery.profiler.Common",
                "version": "0.2.0"
            },
            "type": "PRIMITIVE"
        },
        {
            "arguments": {
                "inputs": {
                    "data": "steps.1.produce",
                    "type": "CONTAINER"
                }
            },
            "hyperparams": {
                "C_gridsearch": {
                    "data": {
                        "encoding": "pickle",
                        "value": "gANHwBAAAAAAAABHQDSAAAAAAABHP+zMzMzMzM2HcQAu"
                    },
                    "type": "VALUE"
                },
                "exclude_input_columns": {
                    "data": [
                        0
                    ],
                    "type": "VALUE"
                },
                "gamma_gridsearch": {
                    "data": {
                        "encoding": "pickle",
                        "value": "gANHwBAAAAAAAABHQDSAAAAAAABHP+zMzMzMzM2HcQAu"
                    },
                    "type": "VALUE"
                },
                "regressor_type": {
                    "data": "linear",
                    "type": "VALUE"
                },
                "use_scree": {
                    "data": false,
                    "type": "VALUE"
                },
                "use_semantic_types": {
                    "data": true,
                    "type": "VALUE"
                }
            },
            "outputs": [
                {
                    "id": "produce"
                }
            ],
            "primitive": {
                "digest": "6edcb99d94bbc41f829334900c84ef3c0e25682657224054dadbbed7c73d795b",
                "id": "5361ebf6-9e5a-4ce5-b73c-3babf12f1941",
                "name": "lupi_mfa.lupi_mfa.LupiMFA",
                "python_path": "d3m.primitives.data_preprocessing.lupi_mfa.lupi_mfa.LupiMFA",
                "version": "v6.0.0"
            },
            "type": "PRIMITIVE"
        },
        {
            "arguments": {
                "inputs": {
                    "data": "steps.2.produce",
                    "type": "CONTAINER"
                }
            },
            "hyperparams": {
                "semantic_types": {
                    "data": [
                        "https://metadata.datadrivendiscovery.org/types/TrueTarget"
                    ],
                    "type": "VALUE"
                }
            },
            "outputs": [
                {
                    "id": "produce"
                }
            ],
            "primitive": {
                "digest": "8ec39fb39a8a0caca637ef87c1a641b43b1fde77c81a1627456b75f388fa1741",
                "id": "4503a4c6-42f7-45a1-a1d4-ed69699cf5e1",
                "name": "Extracts columns by semantic type",
                "python_path": "d3m.primitives.data_transformation.extract_columns_by_semantic_types.Common",
                "version": "0.3.0"
            },
            "type": "PRIMITIVE"
        },
        {
            "arguments": {
                "inputs": {
                    "data": "steps.1.produce",
                    "type": "CONTAINER"
                }
            },
            "outputs": [
                {
                    "id": "produce"
                }
            ],
            "primitive": {
                "digest": "c8bfa9fa3834534aeecc2fef272167119f6d7dec1d26360465f5a61862136e87",
                "id": "d510cb7a-1782-4f51-b44c-58f0236e47c7",
                "name": "Parses strings into their types",
                "python_path": "d3m.primitives.data_transformation.column_parser.Common",
                "version": "0.6.0"
            },
            "type": "PRIMITIVE"
        },
        {
            "arguments": {
                "inputs": {
                    "data": "steps.2.produce",
                    "type": "CONTAINER"
                }
            },
            "hyperparams": {
                "semantic_types": {
                    "data": [
                        "https://metadata.datadrivendiscovery.org/types/Attribute"
                    ],
                    "type": "VALUE"
                }
            },
            "outputs": [
                {
                    "id": "produce"
                }
            ],
            "primitive": {
                "digest": "8ec39fb39a8a0caca637ef87c1a641b43b1fde77c81a1627456b75f388fa1741",
                "id": "4503a4c6-42f7-45a1-a1d4-ed69699cf5e1",
                "name": "Extracts columns by semantic type",
                "python_path": "d3m.primitives.data_transformation.extract_columns_by_semantic_types.Common",
                "version": "0.3.0"
            },
            "type": "PRIMITIVE"
        },
        {
            "arguments": {
                "inputs": {
                    "data": "steps.5.produce",
                    "type": "CONTAINER"
                },
                "outputs": {
                    "data": "steps.3.produce",
                    "type": "CONTAINER"
                }
            },
            "hyperparams": {
                "exclude_inputs_columns": {
                    "data": [
                        0
                    ],
                    "type": "VALUE"
                },
                "max_depth": {
                    "data": {
                        "case": "int",
                        "value": 10
                    },
                    "type": "VALUE"
                },
                "n_estimators": {
                    "data": 100,
                    "type": "VALUE"
                }
            },
            "outputs": [
                {
                    "id": "produce"
                }
            ],
            "primitive": {
                "digest": "93abe4b22214ba6202c13c6a2fe5b2b4d03cdc28a78fa02b6f2759e7b125eaed",
                "id": "1dd82833-5692-39cb-84fb-2455683075f3",
                "name": "sklearn.ensemble.forest.RandomForestClassifier",
                "python_path": "d3m.primitives.classification.random_forest.SKlearn",
                "version": "2019.11.13"
            },
            "type": "PRIMITIVE"
        },
        {
            "arguments": {
                "inputs": {
                    "data": "steps.6.produce",
                    "type": "CONTAINER"
                },
                "reference": {
                    "data": "steps.1.produce",
                    "type": "CONTAINER"
                }
            },
            "outputs": [
                {
                    "id": "produce"
                }
            ],
            "primitive": {
                "digest": "72b09a3850221af181095b84d76904107a59fa40ed6631c5e42b45a6f2151772",
                "id": "8d38b340-f83f-4877-baaa-162f8e551736",
                "name": "Construct pipeline predictions output",
                "python_path": "d3m.primitives.data_transformation.construct_predictions.Common",
                "version": "0.3.0"
            },
            "type": "PRIMITIVE"
        }
    ]
}