{
    "id": "30f4b3fa-43df-4f66-bb79-8e5e7ae32b74",
    "schema": "https://metadata.datadrivendiscovery.org/schemas/v0/pipeline.json",
    "created": "2020-01-22T18:15:31.779742Z",
    "inputs": [
        {
            "name": "inputs"
        }
    ],
    "outputs": [
        {
            "data": "steps.9.produce",
            "name": "output"
        }
    ],
    "steps": [
        {
            "type": "PRIMITIVE",
            "primitive": {
                "id": "4b42ce1e-9b98-4a25-b68e-fad13311eb65",
                "version": "0.3.0",
                "python_path": "d3m.primitives.data_transformation.dataset_to_dataframe.Common",
                "name": "Extract a DataFrame from a Dataset",
                "digest": "94e55565484a455ee0562db811200a7d1845fcdfea57e751588e05e23637df8a"
            },
            "arguments": {
                "inputs": {
                    "type": "CONTAINER",
                    "data": "inputs.0"
                }
            },
            "outputs": [
                {
                    "id": "produce"
                }
            ]
        },
        {
            "type": "PRIMITIVE",
            "primitive": {
                "id": "d510cb7a-1782-4f51-b44c-58f0236e47c7",
                "version": "0.6.0",
                "python_path": "d3m.primitives.data_transformation.column_parser.Common",
                "name": "Parses strings into their types",
                "digest": "2900a4da1713c5bcaefcab2978a62b37e984e3742346497668d7a0299d47c0d3"
            },
            "arguments": {
                "inputs": {
                    "type": "CONTAINER",
                    "data": "steps.0.produce"
                }
            },
            "outputs": [
                {
                    "id": "produce"
                }
            ]
        },
        {
            "type": "PRIMITIVE",
            "primitive": {
                "id": "4503a4c6-42f7-45a1-a1d4-ed69699cf5e1",
                "version": "0.3.0",
                "python_path": "d3m.primitives.data_transformation.extract_columns_by_semantic_types.Common",
                "name": "Extracts columns by semantic type",
                "digest": "89f151da0c89d001fa7ca2346c8f3d48505e052be222ed6fa29f89c1ce8a24af"
            },
            "arguments": {
                "inputs": {
                    "type": "CONTAINER",
                    "data": "steps.1.produce"
                }
            },
            "outputs": [
                {
                    "id": "produce"
                }
            ],
            "hyperparams": {
                "semantic_types": {
                    "type": "VALUE",
                    "data": [
                        "https://metadata.datadrivendiscovery.org/types/Attribute"
                    ]
                }
            }
        },
        {
            "type": "PRIMITIVE",
            "primitive": {
                "id": "d016df89-de62-3c53-87ed-c06bb6a23cde",
                "version": "2019.6.7",
                "python_path": "d3m.primitives.data_cleaning.imputer.SKlearn",
                "name": "sklearn.impute.SimpleImputer",
                "digest": "adc79e644eec35eb9d616be755a5de83b27f66e42b04f6508a9ceb82d99cc739"
            },
            "arguments": {
                "inputs": {
                    "type": "CONTAINER",
                    "data": "steps.2.produce"
                }
            },
            "outputs": [
                {
                    "id": "produce"
                }
            ],
            "hyperparams": {
                "use_semantic_types": {
                    "type": "VALUE",
                    "data": true
                },
                "return_result": {
                    "type": "VALUE",
                    "data": "replace"
                }
            }
        },
        {
            "type": "PRIMITIVE",
            "primitive": {
                "id": "4503a4c6-42f7-45a1-a1d4-ed69699cf5e1",
                "version": "0.3.0",
                "python_path": "d3m.primitives.data_transformation.extract_columns_by_semantic_types.Common",
                "name": "Extracts columns by semantic type",
                "digest": "89f151da0c89d001fa7ca2346c8f3d48505e052be222ed6fa29f89c1ce8a24af"
            },
            "arguments": {
                "inputs": {
                    "type": "CONTAINER",
                    "data": "steps.1.produce"
                }
            },
            "outputs": [
                {
                    "id": "produce"
                }
            ],
            "hyperparams": {
                "semantic_types": {
                    "type": "VALUE",
                    "data": [
                        "https://metadata.datadrivendiscovery.org/types/TrueTarget"
                    ]
                }
            }
        },
        {
            "type": "PRIMITIVE",
            "primitive": {
                "id": "34f71b2e-17bb-488d-a2ba-b60b8c305539",
                "version": "0.1.0",
                "python_path": "d3m.primitives.data_transformation.dataframe_to_ndarray.Common",
                "name": "DataFrame to ndarray converter",
                "digest": "1db2b62027fbba648b3074f600a43585f5d343426f45f0f9a5c7c4a552193b19"
            },
            "arguments": {
                "inputs": {
                    "type": "CONTAINER",
                    "data": "steps.3.produce"
                }
            },
            "outputs": [
                {
                    "id": "produce"
                }
            ]
        },
        {
            "type": "PRIMITIVE",
            "primitive": {
                "id": "fe20ef05-7eaf-428b-934f-4de0b8011ed2",
                "version": "0.0.5",
                "python_path": "d3m.primitives.data_compression.grasta.Umich",
                "name": "GRASTA",
                "digest": "bc69fc7b8834798de2007e834c68ef83d55baedffd7440fd85c2d44fc7d5883b"
            },
            "arguments": {
                "inputs": {
                    "type": "CONTAINER",
                    "data": "steps.5.produce"
                }
            },
            "outputs": [
                {
                    "id": "produce"
                }
            ]
        },
        {
            "type": "PRIMITIVE",
            "primitive": {
                "id": "f5241b2e-64f7-44ad-9675-df3d08066437",
                "version": "0.1.0",
                "python_path": "d3m.primitives.data_transformation.ndarray_to_dataframe.Common",
                "name": "ndarray to Dataframe converter",
                "digest": "78a96b46c72284abb24590ca6a9f98ee90c3d1cb9ea7ac37980f399647ba3207"
            },
            "arguments": {
                "inputs": {
                    "type": "CONTAINER",
                    "data": "steps.6.produce"
                }
            },
            "outputs": [
                {
                    "id": "produce"
                }
            ]
        },
        {
            "type": "PRIMITIVE",
            "primitive": {
                "id": "f40ffdc0-1d6d-3234-8fd0-a3e4d7a136a7",
                "version": "2019.6.7",
                "python_path": "d3m.primitives.regression.linear_svr.SKlearn",
                "name": "sklearn.svm.classes.LinearSVR",
                "digest": "fb45a3b2a377e0c7117ecb8448869710d671ad223bab3cf1b88c6e7e99b3bf37"
            },
            "arguments": {
                "inputs": {
                    "type": "CONTAINER",
                    "data": "steps.7.produce"
                },
                "outputs": {
                    "type": "CONTAINER",
                    "data": "steps.4.produce"
                }
            },
            "outputs": [
                {
                    "id": "produce"
                }
            ]
        },
        {
            "type": "PRIMITIVE",
            "primitive": {
                "id": "8d38b340-f83f-4877-baaa-162f8e551736",
                "version": "0.3.0",
                "python_path": "d3m.primitives.data_transformation.construct_predictions.Common",
                "name": "Construct pipeline predictions output",
                "digest": "77711603dffb3d4d246624db7e8474aad3be09861ab99c1c4d2ea6b8d6d9770a"
            },
            "arguments": {
                "inputs": {
                    "type": "CONTAINER",
                    "data": "steps.8.produce"
                },
                "reference": {
                    "type": "CONTAINER",
                    "data": "steps.0.produce"
                }
            },
            "outputs": [
                {
                    "id": "produce"
                }
            ]
        }
    ],
    "digest": "44611cffcaf13b7e7d098050ae77e40ec92225c631dd351bbe3769d03e5fd796"
}