{
    "id":"248a3eab-dcb5-4abf-a417-cd8464dd425a",
    "schema":"https://metadata.datadrivendiscovery.org/schemas/v0/pipeline.json",
    "created":"2020-01-17T22:00:50.461896Z",
    "inputs":[
        {
            "name":"input dataset"
        }
    ],
    "outputs":[
        {
            "data":"steps.7.produce",
            "name":"predictions of input dataset"
        }
    ],
    "steps":[
        {
            "type":"PRIMITIVE",
            "primitive":{
                "id":"f31f8c1f-d1c5-43e5-a4b2-2ae4a761ef2e",
                "version":"0.2.0",
                "python_path":"d3m.primitives.data_transformation.denormalize.Common",
                "name":"Denormalize datasets",
                "digest":"c2ac53d5362c47b9227d72b31c4845cf06331c044c443f64b06173a82fa2af58"
            },
            "arguments":{
                "inputs":{
                    "type":"CONTAINER",
                    "data":"inputs.0"
                }
            },
            "outputs":[
                {
                    "id":"produce"
                }
            ]
        },
        {
            "type":"PRIMITIVE",
            "primitive":{
                "id":"4b42ce1e-9b98-4a25-b68e-fad13311eb65",
                "version":"0.3.0",
                "python_path":"d3m.primitives.data_transformation.dataset_to_dataframe.Common",
                "name":"Extract a DataFrame from a Dataset",
                "digest":"721acdfdf36de9b51a2100a2f4056904d2641c49e5812515fe565adecdf076d1"
            },
            "arguments":{
                "inputs":{
                    "type":"CONTAINER",
                    "data":"steps.0.produce"
                }
            },
            "outputs":[
                {
                    "id":"produce"
                }
            ]
        },
        {
            "type":"PRIMITIVE",
            "primitive":{
                "id":"4503a4c6-42f7-45a1-a1d4-ed69699cf5e1",
                "version":"0.3.0",
                "python_path":"d3m.primitives.data_transformation.extract_columns_by_semantic_types.Common",
                "name":"Extracts columns by semantic type",
                "digest":"8ec39fb39a8a0caca637ef87c1a641b43b1fde77c81a1627456b75f388fa1741"
            },
            "arguments":{
                "inputs":{
                    "type":"CONTAINER",
                    "data":"steps.1.produce"
                }
            },
            "outputs":[
                {
                    "id":"produce"
                }
            ],
            "hyperparams":{
                "semantic_types":{
                    "type":"VALUE",
                    "data":[
                        "https://metadata.datadrivendiscovery.org/types/TrueTarget"
                    ]
                }
            }
        },
        {
            "type":"PRIMITIVE",
            "primitive":{
                "id":"7ddf2fd8-2f7f-4e53-96a7-0d9f5aeecf93",
                "version":"1.5.3",
                "python_path":"d3m.primitives.data_transformation.to_numeric.DSBOX",
                "name":"ISI DSBox To Numeric DataFrame",
                "digest":"ac7ca31e3a3e45b1a63ba57c38a59cc4539bd0fe1d056c28739efd5a8727c07f"
            },
            "arguments":{
                "inputs":{
                    "type":"CONTAINER",
                    "data":"steps.2.produce"
                }
            },
            "outputs":[
                {
                    "id":"produce"
                }
            ],
            "hyperparams":{
                "drop_non_numeric_columns":{
                    "type":"VALUE",
                    "data":false
                }
            }
        },
        {
            "type":"PRIMITIVE",
            "primitive":{
                "id":"dsbox-featurizer-image-dataframe-to-tensor",
                "version":"1.5.3",
                "python_path":"d3m.primitives.data_preprocessing.dataframe_to_tensor.DSBOX",
                "name":"DSBox Image Featurizer dataframe to tensor transformer",
                "digest":"73740f656c6afcaea06a798c069ebacbb8b079cf52f34955eed4eb818bb0fe43"
            },
            "arguments":{
                "inputs":{
                    "type":"CONTAINER",
                    "data":"steps.1.produce"
                }
            },
            "outputs":[
                {
                    "id":"produce"
                }
            ]
        },
        {
            "type":"PRIMITIVE",
            "primitive":{
                "id":"dsbox-featurizer-image-resnet50",
                "version":"1.5.3",
                "python_path":"d3m.primitives.feature_extraction.resnet50_image_feature.DSBOX",
                "name":"DSBox Image Featurizer ResNet50",
                "digest":"801d7e24d39882f7b9ec7a9e3aa4d3cb84fd62b15b5c85f81e7171a153a2ca15"
            },
            "arguments":{
                "inputs":{
                    "type":"CONTAINER",
                    "data":"steps.4.produce"
                }
            },
            "outputs":[
                {
                    "id":"produce"
                }
            ],
            "hyperparams":{
                "generate_metadata":{
                    "type":"VALUE",
                    "data":true
                }
            }
        },
        {
            "type":"PRIMITIVE",
            "primitive":{
                "id":"2fb28cd1-5de6-3663-a2dc-09c786fba7f4",
                "version":"2019.11.13",
                "python_path":"d3m.primitives.feature_extraction.pca.SKlearn",
                "name":"sklearn.decomposition.pca.PCA",
                "digest":"e3bb66578a58a650d58715d327257d80ae7c86ac2b0df75ca5fb9019ab43f8e9"
            },
            "arguments":{
                "inputs":{
                    "type":"CONTAINER",
                    "data":"steps.5.produce"
                }
            },
            "outputs":[
                {
                    "id":"produce"
                }
            ],
            "hyperparams":{
                "add_index_columns":{
                    "type":"VALUE",
                    "data":true
                },
                "use_semantic_types":{
                    "type":"VALUE",
                    "data":true
                }
            }
        },
        {
            "type":"PRIMITIVE",
            "primitive":{
                "id":"f0fd7a62-09b5-3abc-93bb-f5f999f7cc80",
                "version":"2019.11.13",
                "python_path":"d3m.primitives.regression.random_forest.SKlearn",
                "name":"sklearn.ensemble.forest.RandomForestRegressor",
                "digest":"4bf2c5e6dd0cc1baedaf1f1dd601d773ebb716d569582db803908c5926d7c349"
            },
            "arguments":{
                "inputs":{
                    "type":"CONTAINER",
                    "data":"steps.6.produce"
                },
                "outputs":{
                    "type":"CONTAINER",
                    "data":"steps.3.produce"
                }
            },
            "outputs":[
                {
                    "id":"produce"
                }
            ],
            "hyperparams":{
                "add_index_columns":{
                    "type":"VALUE",
                    "data":true
                }
            }
        }
    ],
    "name":"TA1ImageProcessingRegressionTemplate:140650456628896",
    "description":"",
    "digest":"07b2b954c816c6645b9e46d05fcdde8464c06cdae2ebe376b29dec6a142991d2"
}