{
    "id":"2ea8a1e1-c107-4296-92b1-a6a6baf25e25",
    "schema":"https://metadata.datadrivendiscovery.org/schemas/v0/pipeline.json",
    "created":"2020-01-17T22:17:02.401999Z",
    "inputs":[
        {
            "name":"input dataset"
        }
    ],
    "outputs":[
        {
            "data":"steps.20.produce",
            "name":"predictions of input dataset"
        }
    ],
    "steps":[
        {
            "type":"PRIMITIVE",
            "primitive":{
                "id":"dsbox-featurizer-do-nothing-dataset-version",
                "version":"1.5.3",
                "python_path":"d3m.primitives.data_preprocessing.do_nothing_for_dataset.DSBOX",
                "name":"DSBox do-nothing primitive dataset version",
                "digest":"7259cd6f5276b6920b4b56bcf3239886f56d6e9df109145516ba2af07dcfc45a"
            },
            "arguments":{
                "inputs":{
                    "type":"CONTAINER",
                    "data":"inputs.0"
                }
            },
            "outputs":[
                {
                    "id":"produce"
                }
            ]
        },
        {
            "type":"PRIMITIVE",
            "primitive":{
                "id":"f31f8c1f-d1c5-43e5-a4b2-2ae4a761ef2e",
                "version":"0.2.0",
                "python_path":"d3m.primitives.data_transformation.denormalize.Common",
                "name":"Denormalize datasets",
                "digest":"c2ac53d5362c47b9227d72b31c4845cf06331c044c443f64b06173a82fa2af58"
            },
            "arguments":{
                "inputs":{
                    "type":"CONTAINER",
                    "data":"steps.0.produce"
                }
            },
            "outputs":[
                {
                    "id":"produce"
                }
            ]
        },
        {
            "type":"PRIMITIVE",
            "primitive":{
                "id":"4b42ce1e-9b98-4a25-b68e-fad13311eb65",
                "version":"0.3.0",
                "python_path":"d3m.primitives.data_transformation.dataset_to_dataframe.Common",
                "name":"Extract a DataFrame from a Dataset",
                "digest":"721acdfdf36de9b51a2100a2f4056904d2641c49e5812515fe565adecdf076d1"
            },
            "arguments":{
                "inputs":{
                    "type":"CONTAINER",
                    "data":"steps.1.produce"
                }
            },
            "outputs":[
                {
                    "id":"produce"
                }
            ]
        },
        {
            "type":"PRIMITIVE",
            "primitive":{
                "id":"4503a4c6-42f7-45a1-a1d4-ed69699cf5e1",
                "version":"0.3.0",
                "python_path":"d3m.primitives.data_transformation.extract_columns_by_semantic_types.Common",
                "name":"Extracts columns by semantic type",
                "digest":"8ec39fb39a8a0caca637ef87c1a641b43b1fde77c81a1627456b75f388fa1741"
            },
            "arguments":{
                "inputs":{
                    "type":"CONTAINER",
                    "data":"steps.2.produce"
                }
            },
            "outputs":[
                {
                    "id":"produce"
                }
            ],
            "hyperparams":{
                "semantic_types":{
                    "type":"VALUE",
                    "data":[
                        "https://metadata.datadrivendiscovery.org/types/PrimaryKey",
                        "https://metadata.datadrivendiscovery.org/types/Attribute"
                    ]
                }
            }
        },
        {
            "type":"PRIMITIVE",
            "primitive":{
                "id":"b2612849-39e4-33ce-bfda-24f3e2cb1e93",
                "version":"1.5.3",
                "python_path":"d3m.primitives.schema_discovery.profiler.DSBOX",
                "name":"DSBox Profiler",
                "digest":"6fa825acce167f3130bafe9dd628d8f4b8bb6ae75dfe39778564d85d74f46b73"
            },
            "arguments":{
                "inputs":{
                    "type":"CONTAINER",
                    "data":"steps.3.produce"
                }
            },
            "outputs":[
                {
                    "id":"produce"
                }
            ]
        },
        {
            "type":"PRIMITIVE",
            "primitive":{
                "id":"dsbox-cleaning-featurizer",
                "version":"1.5.3",
                "python_path":"d3m.primitives.data_cleaning.cleaning_featurizer.DSBOX",
                "name":"DSBox Cleaning Featurizer",
                "digest":"f678cd85476382789f30c0173ca91e6217a58b022887663780d035b1d58ada3a"
            },
            "arguments":{
                "inputs":{
                    "type":"CONTAINER",
                    "data":"steps.4.produce"
                }
            },
            "outputs":[
                {
                    "id":"produce"
                }
            ]
        },
        {
            "type":"PRIMITIVE",
            "primitive":{
                "id":"18f0bb42-6350-3753-8f2d-d1c3da70f279",
                "version":"1.5.3",
                "python_path":"d3m.primitives.data_preprocessing.encoder.DSBOX",
                "name":"ISI DSBox Data Encoder",
                "digest":"0966d63e1f39b6df608e2733d665cc7b975a31b9ca43e6a6a49e46a478412aa1"
            },
            "arguments":{
                "inputs":{
                    "type":"CONTAINER",
                    "data":"steps.5.produce"
                }
            },
            "outputs":[
                {
                    "id":"produce"
                }
            ]
        },
        {
            "type":"PRIMITIVE",
            "primitive":{
                "id":"7ddf2fd8-2f7f-4e53-96a7-0d9f5aeecf93",
                "version":"1.5.3",
                "python_path":"d3m.primitives.data_transformation.to_numeric.DSBOX",
                "name":"ISI DSBox To Numeric DataFrame",
                "digest":"ac7ca31e3a3e45b1a63ba57c38a59cc4539bd0fe1d056c28739efd5a8727c07f"
            },
            "arguments":{
                "inputs":{
                    "type":"CONTAINER",
                    "data":"steps.5.produce"
                }
            },
            "outputs":[
                {
                    "id":"produce"
                }
            ]
        },
        {
            "type":"PRIMITIVE",
            "primitive":{
                "id":"7894b699-61e9-3a50-ac9f-9bc510466667",
                "version":"1.5.3",
                "python_path":"d3m.primitives.data_preprocessing.mean_imputation.DSBOX",
                "name":"DSBox Mean Imputer",
                "digest":"8333e965d421e24fbd4e38ce4f60d875ef1d3ca59a7bd5fe7b81343b65e7c7ab"
            },
            "arguments":{
                "inputs":{
                    "type":"CONTAINER",
                    "data":"steps.7.produce"
                }
            },
            "outputs":[
                {
                    "id":"produce"
                }
            ]
        },
        {
            "type":"PRIMITIVE",
            "primitive":{
                "id":"dsbox-multi-table-feature-scaler",
                "version":"1.5.3",
                "python_path":"d3m.primitives.normalization.iqr_scaler.DSBOX",
                "name":"DSBox feature scaler",
                "digest":"549212bedebb410c91cef5d38043d8a99923696370890f6b7d0211277b9dcfbc"
            },
            "arguments":{
                "inputs":{
                    "type":"CONTAINER",
                    "data":"steps.8.produce"
                }
            },
            "outputs":[
                {
                    "id":"produce"
                }
            ]
        },
        {
            "type":"PRIMITIVE",
            "primitive":{
                "id":"dsbox-featurizer-do-nothing",
                "version":"1.5.3",
                "python_path":"d3m.primitives.data_preprocessing.do_nothing.DSBOX",
                "name":"DSBox do-nothing primitive",
                "digest":"85058e1aaa406ce3f053acbb7cbce5a864f4b91d4a277b29ed8ce755e8879248"
            },
            "arguments":{
                "inputs":{
                    "type":"CONTAINER",
                    "data":"steps.9.produce"
                }
            },
            "outputs":[
                {
                    "id":"produce"
                }
            ]
        },
        {
            "type":"PRIMITIVE",
            "primitive":{
                "id":"4503a4c6-42f7-45a1-a1d4-ed69699cf5e1",
                "version":"0.3.0",
                "python_path":"d3m.primitives.data_transformation.extract_columns_by_semantic_types.Common",
                "name":"Extracts columns by semantic type",
                "digest":"8ec39fb39a8a0caca637ef87c1a641b43b1fde77c81a1627456b75f388fa1741"
            },
            "arguments":{
                "inputs":{
                    "type":"CONTAINER",
                    "data":"steps.2.produce"
                }
            },
            "outputs":[
                {
                    "id":"produce"
                }
            ],
            "hyperparams":{
                "semantic_types":{
                    "type":"VALUE",
                    "data":[
                        "https://metadata.datadrivendiscovery.org/types/TrueTarget"
                    ]
                }
            }
        },
        {
            "type":"PRIMITIVE",
            "primitive":{
                "id":"7ddf2fd8-2f7f-4e53-96a7-0d9f5aeecf93",
                "version":"1.5.3",
                "python_path":"d3m.primitives.data_transformation.to_numeric.DSBOX",
                "name":"ISI DSBox To Numeric DataFrame",
                "digest":"ac7ca31e3a3e45b1a63ba57c38a59cc4539bd0fe1d056c28739efd5a8727c07f"
            },
            "arguments":{
                "inputs":{
                    "type":"CONTAINER",
                    "data":"steps.11.produce"
                }
            },
            "outputs":[
                {
                    "id":"produce"
                }
            ],
            "hyperparams":{
                "drop_non_numeric_columns":{
                    "type":"VALUE",
                    "data":false
                }
            }
        },
        {
            "type":"PRIMITIVE",
            "primitive":{
                "id":"dsbox-featurizer-do-nothing",
                "version":"1.5.3",
                "python_path":"d3m.primitives.data_preprocessing.do_nothing.DSBOX",
                "name":"DSBox do-nothing primitive",
                "digest":"85058e1aaa406ce3f053acbb7cbce5a864f4b91d4a277b29ed8ce755e8879248"
            },
            "arguments":{
                "inputs":{
                    "type":"CONTAINER",
                    "data":"steps.10.produce"
                }
            },
            "outputs":[
                {
                    "id":"produce"
                }
            ]
        },
        {
            "type":"PRIMITIVE",
            "primitive":{
                "id":"a323b46a-6c15-373e-91b4-20efbd65402f",
                "version":"2019.11.13",
                "python_path":"d3m.primitives.classification.linear_discriminant_analysis.SKlearn",
                "name":"sklearn.discriminant_analysis.LinearDiscriminantAnalysis",
                "digest":"e6d6eda6c3772151e7a5fd0dda878c46ddb9e8743979ecb345c1aeedfed98b31"
            },
            "arguments":{
                "inputs":{
                    "type":"CONTAINER",
                    "data":"steps.13.produce"
                },
                "outputs":{
                    "type":"CONTAINER",
                    "data":"steps.12.produce"
                }
            },
            "outputs":[
                {
                    "id":"produce"
                }
            ],
            "hyperparams":{
                "add_index_columns":{
                    "type":"VALUE",
                    "data":true
                },
                "return_result":{
                    "type":"VALUE",
                    "data":"new"
                },
                "use_semantic_types":{
                    "type":"VALUE",
                    "data":true
                }
            }
        },
        {
            "type":"PRIMITIVE",
            "primitive":{
                "id":"90e7b335-5af0-35ad-932c-9c771fe84693",
                "version":"2019.11.13",
                "python_path":"d3m.primitives.classification.nearest_centroid.SKlearn",
                "name":"sklearn.neighbors.nearest_centroid.NearestCentroid",
                "digest":"bf80fda9ccdcea59d73af41914cb6d918f000312ebe1dd90b04a5bce15894c5a"
            },
            "arguments":{
                "inputs":{
                    "type":"CONTAINER",
                    "data":"steps.13.produce"
                },
                "outputs":{
                    "type":"CONTAINER",
                    "data":"steps.12.produce"
                }
            },
            "outputs":[
                {
                    "id":"produce"
                }
            ],
            "hyperparams":{
                "add_index_columns":{
                    "type":"VALUE",
                    "data":true
                },
                "return_result":{
                    "type":"VALUE",
                    "data":"new"
                },
                "use_semantic_types":{
                    "type":"VALUE",
                    "data":true
                }
            }
        },
        {
            "type":"PRIMITIVE",
            "primitive":{
                "id":"b9c81b40-8ed1-3b23-80cf-0d6fe6863962",
                "version":"2019.11.13",
                "python_path":"d3m.primitives.classification.logistic_regression.SKlearn",
                "name":"sklearn.linear_model.logistic.LogisticRegression",
                "digest":"39f6c25fff2fb011308408e85c7527345422a797648be66f9b29f67cde1e3770"
            },
            "arguments":{
                "inputs":{
                    "type":"CONTAINER",
                    "data":"steps.13.produce"
                },
                "outputs":{
                    "type":"CONTAINER",
                    "data":"steps.12.produce"
                }
            },
            "outputs":[
                {
                    "id":"produce"
                }
            ],
            "hyperparams":{
                "add_index_columns":{
                    "type":"VALUE",
                    "data":true
                },
                "return_result":{
                    "type":"VALUE",
                    "data":"new"
                },
                "use_semantic_types":{
                    "type":"VALUE",
                    "data":true
                }
            }
        },
        {
            "type":"PRIMITIVE",
            "primitive":{
                "id":"dsbox-horizontal-concat",
                "version":"1.5.3",
                "python_path":"d3m.primitives.data_preprocessing.horizontal_concat.DSBOX",
                "name":"DSBox horizontal concat",
                "digest":"27ec910158b57657c56479c96f9cbeee726f770a1a4245670f642d07929046dc"
            },
            "arguments":{
                "inputs":{
                    "type":"CONTAINER",
                    "data":[
                        "steps.13.produce",
                        "steps.14.produce",
                        "steps.15.produce",
                        "steps.16.produce"
                    ]
                }
            },
            "outputs":[
                {
                    "id":"produce"
                }
            ]
        },
        {
            "type":"PRIMITIVE",
            "primitive":{
                "id":"7bae062e-f8b0-4358-91f2-9288a51f3e82",
                "version":"0.2.0",
                "python_path":"d3m.primitives.data_transformation.replace_semantic_types.Common",
                "name":"Replace semantic types for columns",
                "digest":"7e72b4fc1c11e144d9f33bc2a7910ecabef36a00a688cc8b7a36648ba12b307c"
            },
            "arguments":{
                "inputs":{
                    "type":"CONTAINER",
                    "data":"steps.17.produce"
                }
            },
            "outputs":[
                {
                    "id":"produce"
                }
            ],
            "hyperparams":{
                "from_semantic_types":{
                    "type":"VALUE",
                    "data":[
                        "https://metadata.datadrivendiscovery.org/types/Target",
                        "https://metadata.datadrivendiscovery.org/types/PredictedTarget"
                    ]
                },
                "match_logic":{
                    "type":"VALUE",
                    "data":"any"
                },
                "to_semantic_types":{
                    "type":"VALUE",
                    "data":[
                        "https://metadata.datadrivendiscovery.org/types/Attribute"
                    ]
                }
            }
        },
        {
            "type":"PRIMITIVE",
            "primitive":{
                "id":"18f0bb42-6350-3753-8f2d-d1c3da70f279",
                "version":"1.5.3",
                "python_path":"d3m.primitives.data_preprocessing.encoder.DSBOX",
                "name":"ISI DSBox Data Encoder",
                "digest":"0966d63e1f39b6df608e2733d665cc7b975a31b9ca43e6a6a49e46a478412aa1"
            },
            "arguments":{
                "inputs":{
                    "type":"CONTAINER",
                    "data":"steps.18.produce"
                }
            },
            "outputs":[
                {
                    "id":"produce"
                }
            ]
        },
        {
            "type":"PRIMITIVE",
            "primitive":{
                "id":"1dd82833-5692-39cb-84fb-2455683075f3",
                "version":"2019.11.13",
                "python_path":"d3m.primitives.classification.random_forest.SKlearn",
                "name":"sklearn.ensemble.forest.RandomForestClassifier",
                "digest":"93abe4b22214ba6202c13c6a2fe5b2b4d03cdc28a78fa02b6f2759e7b125eaed"
            },
            "arguments":{
                "inputs":{
                    "type":"CONTAINER",
                    "data":"steps.19.produce"
                },
                "outputs":{
                    "type":"CONTAINER",
                    "data":"steps.12.produce"
                }
            },
            "outputs":[
                {
                    "id":"produce"
                }
            ],
            "hyperparams":{
                "add_index_columns":{
                    "type":"VALUE",
                    "data":true
                },
                "use_semantic_types":{
                    "type":"VALUE",
                    "data":true
                }
            }
        }
    ],
    "name":"horizontal_voting_template:140649882379968",
    "description":"",
    "digest":"16392857e02953e31290329f2c7334576fc7bb5012032b6dfe72d45ba6f89f7a"
}