{
    "id": "b0a3e828-e8f6-4280-a562-140d146a12d0",
    "schema": "https://metadata.datadrivendiscovery.org/schemas/v0/pipeline.json",
    "created": "2020-01-22T02:21:04.657571Z",
    "inputs": [
        {
            "name": "inputs"
        }
    ],
    "outputs": [
        {
            "data": "steps.3.produce",
            "name": "Predictions"
        }
    ],
    "steps": [
        {
            "type": "PRIMITIVE",
            "primitive": {
                "id": "cb192a83-63e2-4075-bab9-e6ba1a8365b6",
                "version": "0.1.0",
                "python_path": "d3m.primitives.data_transformation.load_graphs.JHU",
                "name": "Extract a list of Graphs from a Dataset",
                "digest": "e242f072a39e1e6d4cf52d4fe286bc2d35710c06be419012a39fcf450c628be0"
            },
            "arguments": {
                "inputs": {
                    "type": "CONTAINER",
                    "data": "inputs.0"
                }
            },
            "outputs": [
                {
                    "id": "produce"
                }
            ]
        },
        {
            "type": "PRIMITIVE",
            "primitive": {
                "id": "32fec24f-6861-4a4c-88f3-d4ec2bc1b486",
                "version": "0.1.0",
                "python_path": "d3m.primitives.data_preprocessing.largest_connected_component.JHU",
                "name": "jhu.lcc",
                "digest": "023d0caf9a87c58ba9f0c54756fdc1475653fbabf2f81d3105071c36a0c9cca0"
            },
            "arguments": {
                "inputs": {
                    "type": "CONTAINER",
                    "data": "steps.0.produce"
                }
            },
            "outputs": [
                {
                    "id": "produce"
                }
            ]
        },
        {
            "type": "PRIMITIVE",
            "primitive": {
                "id": "8fa6178b-84f7-37d8-87e8-4d3a44c86569",
                "version": "0.1.0",
                "python_path": "d3m.primitives.data_transformation.laplacian_spectral_embedding.JHU",
                "name": "jhu.lse",
                "digest": "deecf5bcf97ee53da23e70cef54d179fdedcf9bf2f625d5bcb138e4568789ce8"
            },
            "arguments": {
                "inputs": {
                    "type": "CONTAINER",
                    "data": "steps.1.produce"
                }
            },
            "outputs": [
                {
                    "id": "produce"
                }
            ],
            "hyperparams": {
                "max_dimension": {
                    "type": "VALUE",
                    "data": 5
                },
                "use_attributes": {
                    "type": "VALUE",
                    "data": true
                }
            }
        },
        {
            "type": "PRIMITIVE",
            "primitive": {
                "id": "5194ef94-3683-319a-9d8d-5c3fdd09de24",
                "version": "0.1.0",
                "python_path": "d3m.primitives.graph_clustering.gaussian_clustering.JHU",
                "name": "jhu.gclust",
                "digest": "6c98d91919abb48dbf35761067c100057f2521172ac92595189b399770256223"
            },
            "arguments": {
                "inputs": {
                    "type": "CONTAINER",
                    "data": "steps.2.produce"
                }
            },
            "outputs": [
                {
                    "id": "produce"
                }
            ],
            "hyperparams": {
                "max_clusters": {
                    "type": "VALUE",
                    "data": 10
                }
            }
        }
    ],
    "digest": "b7497a542c32e08db5671c614949d6216acfc88e1c3985d9ea49e0a30b651034"
}